<?xml version="1.0" encoding="utf-8"?>
<!DOCTYPE svg PUBLIC "-//W3C//DTD SVG 1.1//EN" "http://www.w3.org/Graphics/SVG/1.1/DTD/svg11.dtd">
<svg version="1.1" id="Layer_1" xmlns="http://www.w3.org/2000/svg" xmlns:xlink="http://www.w3.org/1999/xlink" x="0px" y="0px"
	 width="590px" height="200px" viewBox="0 0 590 200" xml:space="preserve">
<g>
	<g>
		<path d="M53.625,99.063c-14.167-24.538-28.333-49.076-42.5-73.613c-1.611-2.791-5.933-0.274-4.317,2.523
			c14.167,24.538,28.333,49.076,42.5,73.613C50.918,104.377,55.24,101.86,53.625,99.063L53.625,99.063z"/>
	</g>
</g>
<g>
	<g>
		<path d="M56.807,114.576c14.167,24.537,28.333,49.074,42.5,73.611c1.611,2.791,5.933,0.274,4.317-2.523
			c-14.167-24.537-28.333-49.074-42.5-73.611C59.513,109.262,55.192,111.778,56.807,114.576L56.807,114.576z"/>
	</g>
</g>
<g>
	<g>
		<path d="M97.716,190.922c-28.333,0-56.667,0-85,0c-3.224,0-3.224,5,0,5c28.333,0,56.667,0,85,0
			C100.94,195.922,100.94,190.922,97.716,190.922L97.716,190.922z"/>
	</g>
</g>
<g>
	<g>
		<path d="M12.716,22.717c28.333,0,56.667,0,85,0c3.224,0,3.224-5,0-5c-28.333,0-56.667,0-85,0
			C9.492,17.717,9.492,22.717,12.716,22.717L12.716,22.717z"/>
	</g>
</g>
<g>
	<g>
		<path d="M293.625,99.063c-14.167-24.538-28.333-49.076-42.5-73.613c-1.611-2.791-5.933-0.274-4.317,2.523
			c14.167,24.538,28.333,49.076,42.5,73.613C290.918,104.377,295.24,101.86,293.625,99.063L293.625,99.063z"/>
	</g>
</g>
<g>
	<g>
		<path d="M296.807,114.576c14.167,24.537,28.334,49.074,42.5,73.611c1.611,2.791,5.933,0.274,4.318-2.523
			c-14.167-24.537-28.334-49.074-42.5-73.611C299.514,109.262,295.192,111.778,296.807,114.576L296.807,114.576z"/>
	</g>
</g>
<g>
	<g>
		<path d="M337.716,190.922c-28.333,0-56.667,0-85,0c-3.224,0-3.224,5,0,5c28.333,0,56.667,0,85,0
			C340.94,195.922,340.94,190.922,337.716,190.922L337.716,190.922z"/>
	</g>
</g>
<g>
	<g>
		<path d="M252.716,22.717c28.333,0,56.667,0,85,0c3.225,0,3.225-5,0-5c-28.333,0-56.667,0-85,0
			C249.492,17.717,249.492,22.717,252.716,22.717L252.716,22.717z"/>
	</g>
</g>
<g>
	<g>
		<path d="M533.625,99.061c-14.166-24.537-28.333-49.074-42.5-73.611c-1.61-2.791-5.932-0.274-4.316,2.523
			c14.166,24.537,28.333,49.074,42.5,73.611C530.919,104.375,535.24,101.858,533.625,99.061L533.625,99.061z"/>
	</g>
</g>
<g>
	<g>
		<path d="M492.717,22.715c28.333,0,56.667,0,85,0c3.225,0,3.225-5,0-5c-28.333,0-56.667,0-85,0
			C489.492,17.715,489.492,22.715,492.717,22.715L492.717,22.715z"/>
	</g>
</g>
<g>
	<g>
		<path d="M577.717,190.92c-28.333,0-56.667,0-85,0c-3.225,0-3.225,5,0,5c28.333,0,56.667,0,85,0
			C580.941,195.92,580.941,190.92,577.717,190.92L577.717,190.92z"/>
	</g>
</g>
<g>
	<g>
		<path d="M529.309,112.051c-14.167,24.538-28.334,49.075-42.5,73.613c-1.615,2.798,2.706,5.314,4.316,2.523
			c14.167-24.538,28.334-49.075,42.5-73.613C535.24,111.776,530.919,109.26,529.309,112.051L529.309,112.051z"/>
	</g>
</g>
<g>
	<g>
		<path fill="#FFFFFF" d="M297.887,113.945c14.166,24.537,28.333,49.074,42.5,73.611c0.806,1.396,2.966,0.137,2.158-1.262
			c-14.166-24.537-28.333-49.074-42.5-73.611C299.239,111.288,297.079,112.547,297.887,113.945L297.887,113.945z"/>
	</g>
</g>
</svg>
